<?xml version="1.0" encoding="UTF-8" standalone="no"?>
<!-- Created with Inkscape (http://www.inkscape.org/) -->

<svg
   xmlns:dc="http://purl.org/dc/elements/1.1/"
   xmlns:cc="http://creativecommons.org/ns#"
   xmlns:rdf="http://www.w3.org/1999/02/22-rdf-syntax-ns#"
   xmlns:svg="http://www.w3.org/2000/svg"
   xmlns="http://www.w3.org/2000/svg"
   xmlns:sodipodi="http://sodipodi.sourceforge.net/DTD/sodipodi-0.dtd"
   xmlns:inkscape="http://www.inkscape.org/namespaces/inkscape"
   width="1048"
   height="612"
   viewBox="0 0 1048 612.00003"
   id="svg96207"
   version="1.1"
   inkscape:version="0.91 r13725"
   sodipodi:docname="mexico.svg">
  <defs
     id="defs96209">
    <clipPath
       id="clipPath39396"
       clipPathUnits="userSpaceOnUse">
      <path
         inkscape:connector-curvature="0"
         id="path39398"
         d="m 435.145,6005.97 335.625,0 0,195.793 -335.625,0 0,-195.793 z" />
    </clipPath>
    <clipPath
       id="clipPath41412"
       clipPathUnits="userSpaceOnUse">
      <path
         inkscape:connector-curvature="0"
         id="path41414"
         d="m 435.145,6387.36 335.637,0 0,195.77 -335.637,0 0,-195.77 z" />
    </clipPath>
    <clipPath
       id="clipPath41400"
       clipPathUnits="userSpaceOnUse">
      <path
         inkscape:connector-curvature="0"
         id="path41402"
         d="m 956.395,6387.38 335.625,0 0,195.75 -335.625,0 0,-195.75 z" />
    </clipPath>
    <clipPath
       id="clipPath41266"
       clipPathUnits="userSpaceOnUse">
      <path
         inkscape:connector-curvature="0"
         id="path41268"
         d="m 1477.63,6387.36 335.633,0 0,195.77 -335.633,0 0,-195.77 z" />
    </clipPath>
    <clipPath
       id="clipPath35014"
       clipPathUnits="userSpaceOnUse">
      <path
         inkscape:connector-curvature="0"
         id="path35016"
         d="m 1998.83,5624.57 335.613,0 0,195.781 -335.613,0 0,-195.781 z" />
    </clipPath>
    <clipPath
       id="clipPath35690"
       clipPathUnits="userSpaceOnUse">
      <path
         inkscape:connector-curvature="0"
         id="path35692"
         d="m 2151.38,5715.57 c -0.2,-1.22 0.32,-2.33 1.14,-2.46 0.82,-0.13 1.64,0.75 1.86,1.99 0.17,1.22 -0.35,2.32 -1.16,2.46 -0.06,0 -0.1,0.02 -0.16,0.02 -0.77,0 -1.5,-0.86 -1.68,-2.01" />
    </clipPath>
    <clipPath
       id="clipPath35696"
       clipPathUnits="userSpaceOnUse">
      <path
         inkscape:connector-curvature="0"
         id="path35698"
         d="m 2149.6,5713.66 4.45,-1.89 2.1,5.12 -4.47,1.87 -2.08,-5.1 z" />
    </clipPath>
    <clipPath
       id="clipPath36220"
       clipPathUnits="userSpaceOnUse">
      <path
         inkscape:connector-curvature="0"
         id="path36222"
         d="m 1998.83,5624.57 335.613,0 0,195.781 -335.613,0 0,-195.781 z" />
    </clipPath>
    <clipPath
       id="clipPath36258"
       clipPathUnits="userSpaceOnUse">
      <path
         inkscape:connector-curvature="0"
         id="path36260"
         d="m 2138.13,5723.96 c -0.79,-0.42 -0.92,-1.73 -0.3,-2.92 0.62,-1.19 1.76,-1.79 2.55,-1.36 0.8,0.42 0.94,1.72 0.31,2.9 -0.49,0.95 -1.3,1.52 -2.01,1.52 -0.19,0 -0.39,-0.05 -0.55,-0.14" />
    </clipPath>
    <clipPath
       id="clipPath36264"
       clipPathUnits="userSpaceOnUse">
      <path
         inkscape:connector-curvature="0"
         id="path36266"
         d="m 2141.75,5719.28 -0.48,5.19 -4.51,-0.42 0.49,-5.19 4.5,0.42 z" />
    </clipPath>
    <clipPath
       id="clipPath36788"
       clipPathUnits="userSpaceOnUse">
      <path
         inkscape:connector-curvature="0"
         id="path36790"
         d="m 1998.83,5624.57 335.613,0 0,195.781 -335.613,0 0,-195.781 z" />
    </clipPath>
    <clipPath
       id="clipPath37590"
       clipPathUnits="userSpaceOnUse">
      <path
         inkscape:connector-curvature="0"
         id="path37592"
         d="m 2188.55,5711.96 c -0.95,-0.85 -1.41,-1.94 -1.03,-2.45 0.39,-0.52 1.52,-0.23 2.5,0.6 0.97,0.85 1.43,1.97 1.03,2.47 -0.13,0.17 -0.36,0.24 -0.62,0.24 -0.51,0 -1.23,-0.27 -1.88,-0.86" />
    </clipPath>
    <clipPath
       id="clipPath37596"
       clipPathUnits="userSpaceOnUse">
      <path
         inkscape:connector-curvature="0"
         id="path37598"
         d="m 2185.25,5711.21 3.7,-4.38 4.37,3.79 -3.69,4.38 -4.38,-3.79 z" />
    </clipPath>
    <clipPath
       id="clipPath41236"
       clipPathUnits="userSpaceOnUse">
      <path
         inkscape:connector-curvature="0"
         id="path41238"
         d="m 1998.88,6387.36 335.621,0 0,195.77 -335.621,0 0,-195.77 z" />
    </clipPath>
    <clipPath
       id="clipPath40544"
       clipPathUnits="userSpaceOnUse">
      <path
         inkscape:connector-curvature="0"
         id="path40546"
         d="m 2520.12,6387.36 335.617,0 0,195.77 -335.617,0 0,-195.77 z" />
    </clipPath>
    <clipPath
       id="clipPath38120"
       clipPathUnits="userSpaceOnUse">
      <path
         inkscape:connector-curvature="0"
         id="path38122"
         d="m 1477.62,5624.57 335.598,0 0,195.781 -335.598,0 0,-195.781 z" />
    </clipPath>
    <clipPath
       id="clipPath34990"
       clipPathUnits="userSpaceOnUse">
      <path
         inkscape:connector-curvature="0"
         id="path34992"
         d="m 2520.06,5624.57 335.621,0 0,195.781 -335.621,0 0,-195.781 z" />
    </clipPath>
    <clipPath
       id="clipPath34876"
       clipPathUnits="userSpaceOnUse">
      <path
         inkscape:connector-curvature="0"
         id="path34878"
         d="m 3041.3,5624.57 335.609,0 0,195.781 -335.609,0 0,-195.781 z" />
    </clipPath>
    <clipPath
       id="clipPath13948"
       clipPathUnits="userSpaceOnUse">
      <path
         inkscape:connector-curvature="0"
         id="path13950"
         d="m 6168.79,4480.36 335.621,0 0,195.781 -335.621,0 0,-195.781 z" />
    </clipPath>
    <clipPath
       id="clipPath38378"
       clipPathUnits="userSpaceOnUse">
      <path
         inkscape:connector-curvature="0"
         id="path38380"
         d="m 6168.69,6005.98 335.648,0 0,195.781 -335.648,0 0,-195.781 z" />
    </clipPath>
    <clipPath
       id="clipPath30660"
       clipPathUnits="userSpaceOnUse">
      <path
         inkscape:connector-curvature="0"
         id="path30662"
         d="m 5126.21,5624.57 335.629,0 0,195.781 -335.629,0 0,-195.781 z" />
    </clipPath>
    <clipPath
       id="clipPath39614"
       clipPathUnits="userSpaceOnUse">
      <path
         inkscape:connector-curvature="0"
         id="path39616"
         d="m 5647.54,6387.37 335.602,0 0,195.758 -335.602,0 0,-195.758 z" />
    </clipPath>
    <clipPath
       id="clipPath39882"
       clipPathUnits="userSpaceOnUse">
      <path
         inkscape:connector-curvature="0"
         id="path39884"
         d="m 4605.06,6387.36 335.621,0 0,195.77 -335.621,0 0,-195.77 z" />
    </clipPath>
    <clipPath
       id="clipPath40478"
       clipPathUnits="userSpaceOnUse">
      <path
         inkscape:connector-curvature="0"
         id="path40480"
         d="m 4083.81,6387.36 335.621,0 0,195.77 -335.621,0 0,-195.77 z" />
    </clipPath>
    <clipPath
       id="clipPath29482"
       clipPathUnits="userSpaceOnUse">
      <path
         inkscape:connector-curvature="0"
         id="path29484"
         d="m 7211.17,5624.57 335.629,0 0,195.781 -335.629,0 0,-195.781 z" />
    </clipPath>
    <clipPath
       id="clipPath29496"
       clipPathUnits="userSpaceOnUse">
      <path
         inkscape:connector-curvature="0"
         id="path29498"
         d="m 6689.94,5624.57 335.629,0 0,195.781 -335.629,0 0,-195.781 z" />
    </clipPath>
    <clipPath
       id="clipPath32992"
       clipPathUnits="userSpaceOnUse">
      <path
         inkscape:connector-curvature="0"
         id="path32994"
         d="m 4083.75,5624.57 335.629,0 0,195.781 -335.629,0 0,-195.781 z" />
    </clipPath>
    <clipPath
       id="clipPath29496-5"
       clipPathUnits="userSpaceOnUse">
      <path
         inkscape:connector-curvature="0"
         id="path29498-7"
         d="m 6689.94,5624.57 335.629,0 0,195.781 -335.629,0 0,-195.781 z" />
    </clipPath>
    <clipPath
       id="clipPath40526"
       clipPathUnits="userSpaceOnUse">
      <path
         inkscape:connector-curvature="0"
         id="path40528"
         d="m 3041.35,6387.36 335.617,0 0,195.77 -335.617,0 0,-195.77 z" />
    </clipPath>
    <clipPath
       id="clipPath40512"
       clipPathUnits="userSpaceOnUse">
      <path
         inkscape:connector-curvature="0"
         id="path40514"
         d="m 3562.59,6387.37 335.621,0 0,195.758 -335.621,0 0,-195.758 z" />
    </clipPath>
    <clipPath
       id="clipPath39868"
       clipPathUnits="userSpaceOnUse">
      <path
         inkscape:connector-curvature="0"
         id="path39870"
         d="m 5126.29,6387.36 335.621,0 0,195.77 -335.621,0 0,-195.77 z" />
    </clipPath>
    <clipPath
       id="clipPath38364"
       clipPathUnits="userSpaceOnUse">
      <path
         inkscape:connector-curvature="0"
         id="path38366"
         d="m 6689.94,6005.98 335.609,0 0,195.781 -335.609,0 0,-195.781 z" />
    </clipPath>
    <clipPath
       id="clipPath26446"
       clipPathUnits="userSpaceOnUse">
      <path
         inkscape:connector-curvature="0"
         id="path26448"
         d="m 1998.86,5243.19 335.629,0 0,195.758 -335.629,0 0,-195.758 z" />
    </clipPath>
    <clipPath
       id="clipPath38302"
       clipPathUnits="userSpaceOnUse">
      <path
         inkscape:connector-curvature="0"
         id="path38304"
         d="m 956.387,5624.56 335.625,0 0,195.793 -335.625,0 0,-195.793 z" />
    </clipPath>
    <clipPath
       id="clipPath26460"
       clipPathUnits="userSpaceOnUse">
      <path
         inkscape:connector-curvature="0"
         id="path26462"
         d="m 1477.62,5243.19 335.617,0 0,195.758 -335.617,0 0,-195.758 z" />
    </clipPath>
    <clipPath
       id="clipPath26474"
       clipPathUnits="userSpaceOnUse">
      <path
         inkscape:connector-curvature="0"
         id="path26476"
         d="m 956.387,5243.16 335.625,0 0,195.789 -335.625,0 0,-195.789 z" />
    </clipPath>
    <clipPath
       id="clipPath27020"
       clipPathUnits="userSpaceOnUse">
      <path
         inkscape:connector-curvature="0"
         id="path27022"
         d="m 1098.57,5378.72 c -1.78,-0.71 -3.88,-0.54 -5.81,-0.54 -0.14,0 -0.25,0.33 -0.5,0.26 -0.03,0 -0.1,-0.11 -0.14,-0.19 l 0,0 c -0.28,-1.28 -0.28,-2.38 -0.22,-3.63 0.04,-0.82 0.43,-1.79 0.8,-2.64 0.24,-0.53 0.56,-1.18 1.06,-1.5 1.39,-0.93 2.71,0.07 3.46,0.4 0.4,0.14 0.92,0.64 1.1,0.96 0.19,0.45 0.11,0.82 0.29,1.74 0.04,0 0.32,0.18 0.28,0.18 0.37,0.57 0.29,0.79 0.48,1.17 0.2,0.43 -0.23,0.87 -0.69,0.76 0.21,0.77 0.39,1.6 0.14,2.32 -0.06,0.2 0.14,0.74 -0.1,0.74 -0.04,0 -0.07,0 -0.15,-0.03" />
    </clipPath>
    <clipPath
       id="clipPath27026"
       clipPathUnits="userSpaceOnUse">
      <path
         inkscape:connector-curvature="0"
         id="path27028"
         d="m 1091.84,5369.55 7.73,0 0,9.2 -7.73,0 0,-9.2 z" />
    </clipPath>
    <clipPath
       id="clipPath27550"
       clipPathUnits="userSpaceOnUse">
      <path
         inkscape:connector-curvature="0"
         id="path27552"
         d="m 956.387,5243.16 335.625,0 0,195.789 -335.625,0 0,-195.789 z" />
    </clipPath>
    <clipPath
       id="clipPath27568"
       clipPathUnits="userSpaceOnUse">
      <path
         inkscape:connector-curvature="0"
         id="path27570"
         d="m 1098.89,5373.76 c -0.03,-0.14 -0.13,-0.14 -0.21,-0.14 -0.03,0 -0.03,0 -0.03,-0.04 -0.18,-0.82 -0.14,-1.25 -0.33,-1.74 -0.28,-0.57 -1.28,-1.07 -1.24,-1.04 -0.79,-0.25 -1.75,-1.21 -3.32,-0.32 -0.07,0.04 -0.15,0.14 -0.25,0.21 0,0 0.46,-1.64 -1.15,-2.43 -0.52,-0.27 -6.16,-3.24 -6.16,-3.24 0,0 -0.6,-1.06 -0.21,-2.53 0.06,-0.25 0.14,-0.46 -0.11,-0.61 -0.35,-0.28 -1.04,-1.1 -1.43,-2.35 0,0 -1.21,0.5 -1.21,1.25 0,0.79 0.5,1.18 0.61,1.75 0.11,0.5 0.43,1.82 0.28,2.21 -0.17,0.47 -0.89,0.61 -1.14,0.74 -0.25,0.18 -0.58,-0.13 -0.54,-0.49 0.04,-0.39 0.32,-0.32 0.65,-0.39 0,0 -0.36,-0.74 -0.33,-1.33 l -3.64,-1.84 c 0,0 0.51,-0.65 0.65,-0.93 0.18,-0.29 0.53,-4 1.61,-5.74 1.06,-1.75 1.42,-1.29 1.67,-1.51 0.18,-0.21 0.49,-0.53 0.79,-0.78 0.28,-0.18 1.53,-0.32 1.75,0.36 0.28,0.64 0.49,1.04 1.24,1.64 0.75,0.61 2.32,2.1 2.32,2.79 0,0 0.89,-2.65 0.78,-4.83 0,0 3.36,-0.67 6.35,-0.74 2.97,-0.04 4.49,0.6 4.49,0.6 0,0 0.39,2.43 0.26,2.96 0.02,-0.21 0.5,-1.68 0.82,-2.17 0.39,-0.69 0.82,-2.07 1.7,-2.18 0.82,0 1.54,0.86 1.65,1.22 l 0,2.64 3.38,0 c 0,0 0.37,-0.12 0.76,-0.26 0.45,-0.13 1,-0.28 1.25,-0.24 0.45,0.07 0.75,0.5 0.31,0.63 l -0.17,0.12 c 0.42,0 1,-0.25 1,-0.25 l 1.67,0 c 0.04,0.03 0,0.13 -0.03,0.21 -0.15,0.46 -1,0.85 -1.64,1.14 -0.65,0.25 -1.37,0.5 -1.83,0.56 -0.78,0.08 -1.28,0.04 -2.42,-0.17 -0.32,-0.04 -1.53,-0.14 -2.28,-0.49 -0.22,-0.15 -0.39,-0.19 -0.33,0.35 0.11,0.53 0.07,3.03 -0.53,4.14 -0.42,0.74 -0.39,1.38 -0.29,2.03 0.04,0.6 0.08,2.82 0,3.46 -0.13,0.6 -0.99,1.5 -2.6,1.71 -1.54,0.18 -2.78,1.43 -2.89,2.43 -0.1,0.99 0.19,2.85 0.32,3.63 l 0,0 z" />
    </clipPath>
    <clipPath
       id="clipPath27574"
       clipPathUnits="userSpaceOnUse">
      <path
         inkscape:connector-curvature="0"
         id="path27576"
         d="m 1079.13,5350.9 34.32,0 0,22.86 -34.32,0 0,-22.86 z" />
    </clipPath>
    <clipPath
       id="clipPath28098"
       clipPathUnits="userSpaceOnUse">
      <path
         inkscape:connector-curvature="0"
         id="path28100"
         d="m 956.387,5243.16 335.625,0 0,195.789 -335.625,0 0,-195.789 z" />
    </clipPath>
    <clipPath
       id="clipPath28242"
       clipPathUnits="userSpaceOnUse">
      <path
         inkscape:connector-curvature="0"
         id="path28244"
         d="m 1149.68,5378.01 c -0.26,-0.72 -0.15,-1.55 0.11,-2.32 -0.43,0.11 -1,-0.33 -0.83,-0.76 0.22,-0.38 0.15,-0.63 0.61,-1.17 0.28,0.11 0.24,-0.24 0.24,-0.35 0.11,-0.65 0.19,-1.12 0.34,-1.57 0.1,-0.32 0.35,-0.65 0.77,-0.82 0.87,-0.37 2.43,-1.36 3.76,-0.54 0.53,0.32 0.74,1 1.06,1.5 0.68,1.14 1.24,2.18 0.97,3.14 -0.19,0.5 0.03,0.57 0.03,1.06 0,0.43 -0.07,0.76 -0.42,2.07 -0.04,0.08 -0.08,0.19 -0.15,0.19 -0.21,0.07 -0.33,-0.26 -0.5,-0.26 -1.93,0 -4.03,-0.17 -5.82,0.54 -0.04,0.03 -0.06,0.03 -0.09,0.03 -0.26,0 0,-0.54 -0.08,-0.74" />
    </clipPath>
    <clipPath
       id="clipPath28248"
       clipPathUnits="userSpaceOnUse">
      <path
         inkscape:connector-curvature="0"
         id="path28250"
         d="m 1148.79,5369.66 8.19,0 0,9.09 -8.19,0 0,-9.09 z" />
    </clipPath>
    <clipPath
       id="clipPath28772"
       clipPathUnits="userSpaceOnUse">
      <path
         inkscape:connector-curvature="0"
         id="path28774"
         d="m 956.387,5243.16 335.625,0 0,195.789 -335.625,0 0,-195.789 z" />
    </clipPath>
    <clipPath
       id="clipPath28786"
       clipPathUnits="userSpaceOnUse">
      <path
         inkscape:connector-curvature="0"
         id="path28788"
         d="m 1149.57,5373.76 c 0.19,-0.78 -0.11,-2.49 -0.07,-3.56 0.07,-1 -1.03,-1.54 -2.71,-2.07 -1.5,-0.47 -3.21,-1.39 -3.21,-3.61 0,-0.66 0.36,-2.21 0.42,-2.88 0.04,-0.64 0.08,-1.29 -0.31,-2.04 -0.6,-1.06 -0.25,-2.71 -0.11,-3.24 0.11,-0.54 -0.14,-0.5 -0.35,-0.35 -0.72,0.35 -1.93,0.45 -2.25,0.49 -1.14,0.21 -1.67,0.25 -2.43,0.17 -0.46,-0.06 -1.18,-0.31 -1.78,-0.56 -0.72,-0.29 -1.57,-0.68 -1.68,-1.14 0,-0.08 -0.03,-0.18 -0.03,-0.21 l 1.64,0 c 0,0 0.57,0.25 1,0.25 l -0.14,-0.12 c -0.4,-0.13 -0.19,-0.56 0.31,-0.63 0.26,-0.04 0.79,0.11 1.21,0.24 0.43,0.14 0.79,0.26 0.79,0.26 l 3.36,0 0,-2.64 c 0.13,-0.36 0.81,-1.22 1.66,-1.22 0.87,0.11 1.29,1.49 1.72,2.18 0.32,0.49 0.75,1.96 0.82,2.17 -0.14,-0.57 0.22,-2.96 0.22,-2.96 0,0 1.53,-0.64 4.53,-0.6 3.03,0.07 6.32,0.74 6.32,0.74 -0.12,2.18 0.81,4.83 0.81,4.83 0,-0.69 1.53,-2.18 2.28,-2.79 0.78,-0.6 0.96,-1 1.25,-1.64 0.29,-0.68 1.54,-0.54 1.74,-0.36 0.29,0.25 0.61,0.57 0.86,0.78 0.19,0.22 0.54,-0.24 1.61,1.51 1.1,1.74 1.46,5.45 1.64,5.74 0.18,0.28 0.64,0.93 0.64,0.93 l -3.68,1.84 c 0.11,0.59 -0.32,1.33 -0.32,1.33 0.32,0.07 0.61,0 0.65,0.39 0.1,0.36 -0.22,0.67 -0.5,0.49 -0.29,-0.13 -0.96,-0.27 -1.1,-0.74 -0.19,-0.39 0.14,-1.71 0.2,-2.21 0.15,-0.57 0.61,-0.96 0.61,-1.75 0,-0.75 -1.14,-1.25 -1.14,-1.25 -0.47,1.25 -1.1,2.07 -1.5,2.35 -0.25,0.15 -0.15,0.36 -0.07,0.61 0.36,1.47 -0.24,2.53 -0.24,2.53 0,0 -5.61,2.97 -6.15,3.24 -1.6,0.79 -1.13,2.43 -1.13,2.43 -0.08,-0.07 -0.18,-0.17 -0.28,-0.21 -1.33,-0.82 -3.19,0.21 -3.82,0.56 -0.4,0.23 -0.47,0.38 -0.71,0.8 -0.23,0.45 -0.23,1.03 -0.34,1.57 -0.02,0.11 0,0.39 -0.13,0.39 -0.03,0 -0.07,-0.04 -0.11,-0.04 m -2.14,-18.48 0,0 m 2.14,18.48 0,0 0,0 0,0 z" />
    </clipPath>
    <clipPath
       id="clipPath28792"
       clipPathUnits="userSpaceOnUse">
      <path
         inkscape:connector-curvature="0"
         id="path28794"
         d="m 1135.06,5350.9 34.27,0 0,22.9 -34.27,0 0,-22.9 z" />
    </clipPath>
    <clipPath
       id="clipPath29316"
       clipPathUnits="userSpaceOnUse">
      <path
         inkscape:connector-curvature="0"
         id="path29318"
         d="m 956.387,5243.16 335.625,0 0,195.789 -335.625,0 0,-195.789 z" />
    </clipPath>
    <clipPath
       id="clipPath34182"
       clipPathUnits="userSpaceOnUse">
      <path
         inkscape:connector-curvature="0"
         id="path34184"
         d="m 3562.52,5624.57 335.621,0 0,195.781 -335.621,0 0,-195.781 z" />
    </clipPath>
    <clipPath
       id="clipPath30584"
       clipPathUnits="userSpaceOnUse">
      <path
         inkscape:connector-curvature="0"
         id="path30586"
         d="m 5647.46,5624.57 335.629,0 0,195.781 -335.629,0 0,-195.781 z" />
    </clipPath>
    <clipPath
       id="clipPath30574"
       clipPathUnits="userSpaceOnUse">
      <path
         inkscape:connector-curvature="0"
         id="path30576"
         d="m 5800.04,5704.53 30.4922,0 0,6.1406 -30.4922,0 0,-6.1406 z" />
    </clipPath>
    <clipPath
       id="clipPath30562"
       clipPathUnits="userSpaceOnUse">
      <path
         inkscape:connector-curvature="0"
         id="path30564"
         d="m 5647.46,5624.57 335.629,0 0,195.781 -335.629,0 0,-195.781 z" />
    </clipPath>
    <clipPath
       id="clipPath30552"
       clipPathUnits="userSpaceOnUse">
      <path
         inkscape:connector-curvature="0"
         id="path30554"
         d="m 5796.13,5703.6 9.1602,0 0,3.457 -9.1602,0 0,-3.457 z" />
    </clipPath>
    <clipPath
       id="clipPath30542"
       clipPathUnits="userSpaceOnUse">
      <path
         inkscape:connector-curvature="0"
         id="path30544"
         d="m 5647.46,5624.57 335.629,0 0,195.781 -335.629,0 0,-195.781 z" />
    </clipPath>
    <clipPath
       id="clipPath30532"
       clipPathUnits="userSpaceOnUse">
      <path
         inkscape:connector-curvature="0"
         id="path30534"
         d="m 5792.38,5701.24 8.3828,0 0,4.5078 -8.3828,0 0,-4.5078 z" />
    </clipPath>
    <clipPath
       id="clipPath30502"
       clipPathUnits="userSpaceOnUse">
      <path
         inkscape:connector-curvature="0"
         id="path30504"
         d="m 5647.46,5624.57 335.629,0 0,195.781 -335.629,0 0,-195.781 z" />
    </clipPath>
    <clipPath
       id="clipPath30492"
       clipPathUnits="userSpaceOnUse">
      <path
         inkscape:connector-curvature="0"
         id="path30494"
         d="m 5825.39,5703.6 9.1992,0 0,3.457 -9.1992,0 0,-3.457 z" />
    </clipPath>
    <clipPath
       id="clipPath30482"
       clipPathUnits="userSpaceOnUse">
      <path
         inkscape:connector-curvature="0"
         id="path30484"
         d="m 5647.46,5624.57 335.629,0 0,195.781 -335.629,0 0,-195.781 z" />
    </clipPath>
    <clipPath
       id="clipPath30472"
       clipPathUnits="userSpaceOnUse">
      <path
         inkscape:connector-curvature="0"
         id="path30474"
         d="m 5829.92,5701.24 8.3594,0 0,4.5078 -8.3594,0 0,-4.5078 z" />
    </clipPath>
    <clipPath
       id="clipPath30068"
       clipPathUnits="userSpaceOnUse">
      <path
         inkscape:connector-curvature="0"
         id="path30070"
         d="m 5647.46,5624.57 335.629,0 0,195.781 -335.629,0 0,-195.781 z" />
    </clipPath>
    <clipPath
       id="clipPath30058"
       clipPathUnits="userSpaceOnUse">
      <path
         inkscape:connector-curvature="0"
         id="path30060"
         d="m 5808.13,5747.83 14.3906,0 0,5.0195 -14.3906,0 0,-5.0195 z" />
    </clipPath>
    <clipPath
       id="clipPath30046"
       clipPathUnits="userSpaceOnUse">
      <path
         inkscape:connector-curvature="0"
         id="path30048"
         d="m 5647.46,5624.57 335.629,0 0,195.781 -335.629,0 0,-195.781 z" />
    </clipPath>
    <clipPath
       id="clipPath30036"
       clipPathUnits="userSpaceOnUse">
      <path
         inkscape:connector-curvature="0"
         id="path30038"
         d="m 5796.78,5744.05 15.2891,0 0,6.3711 -15.2891,0 0,-6.3711 z" />
    </clipPath>
    <clipPath
       id="clipPath30024"
       clipPathUnits="userSpaceOnUse">
      <path
         inkscape:connector-curvature="0"
         id="path30026"
         d="m 5647.46,5624.57 335.629,0 0,195.781 -335.629,0 0,-195.781 z" />
    </clipPath>
    <clipPath
       id="clipPath30014"
       clipPathUnits="userSpaceOnUse">
      <path
         inkscape:connector-curvature="0"
         id="path30016"
         d="m 5794.36,5742.97 8.6523,0 0,5.5234 -8.6523,0 0,-5.5234 z" />
    </clipPath>
    <clipPath
       id="clipPath30004"
       clipPathUnits="userSpaceOnUse">
      <path
         inkscape:connector-curvature="0"
         id="path30006"
         d="m 5647.46,5624.57 335.629,0 0,195.781 -335.629,0 0,-195.781 z" />
    </clipPath>
    <clipPath
       id="clipPath29994"
       clipPathUnits="userSpaceOnUse">
      <path
         inkscape:connector-curvature="0"
         id="path29996"
         d="m 5792.85,5738.44 7.7383,0 0,8.5781 -7.7383,0 0,-8.5781 z" />
    </clipPath>
    <clipPath
       id="clipPath29970"
       clipPathUnits="userSpaceOnUse">
      <path
         inkscape:connector-curvature="0"
         id="path29972"
         d="m 5647.46,5624.57 335.629,0 0,195.781 -335.629,0 0,-195.781 z" />
    </clipPath>
    <clipPath
       id="clipPath29960"
       clipPathUnits="userSpaceOnUse">
      <path
         inkscape:connector-curvature="0"
         id="path29962"
         d="m 5818.54,5743.97 15.293,0 0,6.3828 -15.293,0 0,-6.3828 z" />
    </clipPath>
    <clipPath
       id="clipPath29948"
       clipPathUnits="userSpaceOnUse">
      <path
         inkscape:connector-curvature="0"
         id="path29950"
         d="m 5647.46,5624.57 335.629,0 0,195.781 -335.629,0 0,-195.781 z" />
    </clipPath>
    <clipPath
       id="clipPath29938"
       clipPathUnits="userSpaceOnUse">
      <path
         inkscape:connector-curvature="0"
         id="path29940"
         d="m 5827.6,5742.88 8.6484,0 0,5.5312 -8.6484,0 0,-5.5312 z" />
    </clipPath>
    <clipPath
       id="clipPath29928"
       clipPathUnits="userSpaceOnUse">
      <path
         inkscape:connector-curvature="0"
         id="path29930"
         d="m 5647.46,5624.57 335.629,0 0,195.781 -335.629,0 0,-195.781 z" />
    </clipPath>
    <clipPath
       id="clipPath29918"
       clipPathUnits="userSpaceOnUse">
      <path
         inkscape:connector-curvature="0"
         id="path29920"
         d="m 5830.02,5738.36 7.7109,0 0,8.582 -7.7109,0 0,-8.582 z" />
    </clipPath>
    <clipPath
       id="clipPath29898"
       clipPathUnits="userSpaceOnUse">
      <path
         inkscape:connector-curvature="0"
         id="path29900"
         d="m 5647.46,5624.57 335.629,0 0,195.781 -335.629,0 0,-195.781 z" />
    </clipPath>
    <clipPath
       id="clipPath29880"
       clipPathUnits="userSpaceOnUse">
      <path
         inkscape:connector-curvature="0"
         id="path29882"
         d="m 5647.46,5624.57 335.629,0 0,195.781 -335.629,0 0,-195.781 z" />
    </clipPath>
    <clipPath
       id="clipPath32956"
       clipPathUnits="userSpaceOnUse">
      <path
         inkscape:connector-curvature="0"
         id="path32958"
         d="m 4604.98,5624.58 335.629,0 0,195.77 -335.629,0 0,-195.77 z" />
    </clipPath>
  </defs>
  <sodipodi:namedview
     id="base"
     pagecolor="#ffffff"
     bordercolor="#666666"
     borderopacity="1.0"
     inkscape:pageopacity="0.0"
     inkscape:pageshadow="2"
     inkscape:zoom="1.979899"
     inkscape:cx="276.98383"
     inkscape:cy="407.13085"
     inkscape:document-units="px"
     inkscape:current-layer="layer1"
     showgrid="false"
     units="px"
     inkscape:window-width="1920"
     inkscape:window-height="1053"
     inkscape:window-x="0"
     inkscape:window-y="0"
     inkscape:window-maximized="1"
     inkscape:snap-page="true" />
  <metadata
     id="metadata96212">
    <rdf:RDF>
      <cc:Work
         rdf:about="">
        <dc:format>image/svg+xml</dc:format>
        <dc:type
           rdf:resource="http://purl.org/dc/dcmitype/StillImage" />
        <dc:title></dc:title>
      </cc:Work>
    </rdf:RDF>
  </metadata>
  <g
     inkscape:label="Capa 1"
     inkscape:groupmode="layer"
     id="layer1"
     transform="translate(0,-440.36225)">
    <g
       id="g32952"
       transform="matrix(3.1166713,0,0,-3.1166713,-14351.231,18581.404)">
      <g
         clip-path="url(#clipPath32956)"
         id="g32954">
        <path
           inkscape:connector-curvature="0"
           id="path32960"
           style="fill:#bd1b32;fill-opacity:1;fill-rule:nonzero;stroke:none"
           d="m 4604.98,5624.58 335.629,0 0,195.77 -335.629,0 0,-195.77 z" />
        <path
           inkscape:connector-curvature="0"
           id="path32962"
           style="fill:#377a59;fill-opacity:1;fill-rule:nonzero;stroke:none"
           d="m 4637.03,5651.98 271.488,0 0,140.961 -271.488,0 0,-140.961 z" />
        <path
           inkscape:connector-curvature="0"
           id="path32964"
           style="fill:#efd01c;fill-opacity:1;fill-rule:nonzero;stroke:none"
           d="m 4637.03,5651.98 135.76,70.48 135.73,-70.48 -271.49,0" />
        <path
           inkscape:connector-curvature="0"
           id="path32966"
           style="fill:#efd01c;fill-opacity:1;fill-rule:nonzero;stroke:none"
           d="m 4637.03,5792.94 135.76,-70.48 135.73,70.48 -271.49,0" />
        <path
           inkscape:connector-curvature="0"
           id="path32968"
           style="fill:#bd1b32;fill-opacity:1;fill-rule:nonzero;stroke:none"
           d="m 4796.25,5722.46 c 0,12.98 -10.51,23.51 -23.46,23.51 -12.99,0 -23.49,-10.53 -23.49,-23.51 0,-12.98 10.5,-23.5 23.49,-23.5 12.95,0 23.46,10.52 23.46,23.5" />
        <path
           inkscape:connector-curvature="0"
           id="path32970"
           style="fill:#efd01c;fill-opacity:1;fill-rule:nonzero;stroke:none"
           d="m 4752.3,5729.12 15.63,0 4.86,14.87 4.83,-14.87 15.66,0 -12.65,-9.2 4.82,-14.88 -12.66,9.19 -12.69,-9.19 4.86,14.88 -12.66,9.2" />
        <path
           inkscape:connector-curvature="0"
           id="path32972"
           style="fill:#efd01c;fill-opacity:1;fill-rule:nonzero;stroke:none"
           d="m 4695.43,5810.58 9.24,0 2.87,8.79 2.83,-8.79 9.24,0 -7.46,-5.43 2.85,-8.79 -7.46,5.43 -7.5,-5.43 2.81,8.79 -7.42,5.43" />
        <path
           inkscape:connector-curvature="0"
           id="path32974"
           style="fill:#efd01c;fill-opacity:1;fill-rule:nonzero;stroke:none"
           d="m 4760.68,5810.58 9.24,0 2.87,8.79 2.87,-8.79 9.24,0 -7.5,-5.43 2.85,-8.79 -7.46,5.43 -7.5,-5.43 2.85,8.79 -7.46,5.43" />
        <path
           inkscape:connector-curvature="0"
           id="path32976"
           style="fill:#efd01c;fill-opacity:1;fill-rule:nonzero;stroke:none"
           d="m 4825.94,5810.58 9.24,0 2.87,8.79 2.87,-8.79 9.24,0 -7.46,-5.43 2.81,-8.79 -7.46,5.43 -7.46,-5.43 2.81,8.79 -7.46,5.43" />
        <path
           inkscape:connector-curvature="0"
           id="path32978"
           style="fill:#efd01c;fill-opacity:1;fill-rule:nonzero;stroke:none"
           d="m 4695.43,5642.21 9.24,0 2.87,8.8 2.83,-8.8 9.24,0 -7.46,-5.43 2.85,-8.79 -7.46,5.43 -7.5,-5.43 2.81,8.79 -7.42,5.43" />
        <path
           inkscape:connector-curvature="0"
           id="path32980"
           style="fill:#efd01c;fill-opacity:1;fill-rule:nonzero;stroke:none"
           d="m 4760.68,5642.21 9.24,0 2.87,8.8 2.87,-8.8 9.24,0 -7.5,-5.43 2.85,-8.79 -7.46,5.43 -7.5,-5.43 2.85,8.79 -7.46,5.43" />
        <path
           inkscape:connector-curvature="0"
           id="path32982"
           style="fill:#efd01c;fill-opacity:1;fill-rule:nonzero;stroke:none"
           d="m 4825.94,5642.21 9.24,0 2.87,8.8 2.87,-8.8 9.24,0 -7.46,-5.43 2.81,-8.79 -7.46,5.43 -7.46,-5.43 2.81,8.79 -7.46,5.43" />
        <path
           inkscape:connector-curvature="0"
           id="path32984"
           style="fill:#bd1b32;fill-opacity:1;fill-rule:nonzero;stroke:none"
           d="m 4653.85,5722.2 c 2.93,-5.48 8.67,-11.44 13.67,-13.53 0.06,5.55 -1.93,12.7 -4.61,18.37 l -9.06,-4.84" />
        <path
           inkscape:connector-curvature="0"
           id="path32986"
           style="fill:#efd01c;fill-opacity:1;fill-rule:nonzero;stroke:none"
           d="m 4648.89,5740.99 c 4.24,-8.89 -11.06,-30.08 14.45,-35.04 -3.18,4.29 -5.18,11.37 -4.41,17.07 5.33,-2.04 10.97,-8 13.22,-12.57 6.68,24.25 -17.11,22.78 -23.26,30.54" />
      </g>
    </g>
  </g>
</svg>
