<?xml version="1.0" encoding="UTF-8" standalone="no"?>
<!-- Created with Inkscape (http://www.inkscape.org/) -->

<svg
   xmlns:dc="http://purl.org/dc/elements/1.1/"
   xmlns:cc="http://creativecommons.org/ns#"
   xmlns:rdf="http://www.w3.org/1999/02/22-rdf-syntax-ns#"
   xmlns:svg="http://www.w3.org/2000/svg"
   xmlns="http://www.w3.org/2000/svg"
   xmlns:sodipodi="http://sodipodi.sourceforge.net/DTD/sodipodi-0.dtd"
   xmlns:inkscape="http://www.inkscape.org/namespaces/inkscape"
   width="1048"
   height="612"
   viewBox="0 0 1048 612.00003"
   id="svg96207"
   version="1.1"
   inkscape:version="0.91 r13725"
   sodipodi:docname="mexico.svg">
  <defs
     id="defs96209">
    <clipPath
       id="clipPath39396"
       clipPathUnits="userSpaceOnUse">
      <path
         inkscape:connector-curvature="0"
         id="path39398"
         d="m 435.145,6005.97 335.625,0 0,195.793 -335.625,0 0,-195.793 z" />
    </clipPath>
    <clipPath
       id="clipPath41412"
       clipPathUnits="userSpaceOnUse">
      <path
         inkscape:connector-curvature="0"
         id="path41414"
         d="m 435.145,6387.36 335.637,0 0,195.77 -335.637,0 0,-195.77 z" />
    </clipPath>
    <clipPath
       id="clipPath41400"
       clipPathUnits="userSpaceOnUse">
      <path
         inkscape:connector-curvature="0"
         id="path41402"
         d="m 956.395,6387.38 335.625,0 0,195.75 -335.625,0 0,-195.75 z" />
    </clipPath>
    <clipPath
       id="clipPath41266"
       clipPathUnits="userSpaceOnUse">
      <path
         inkscape:connector-curvature="0"
         id="path41268"
         d="m 1477.63,6387.36 335.633,0 0,195.77 -335.633,0 0,-195.77 z" />
    </clipPath>
    <clipPath
       id="clipPath35014"
       clipPathUnits="userSpaceOnUse">
      <path
         inkscape:connector-curvature="0"
         id="path35016"
         d="m 1998.83,5624.57 335.613,0 0,195.781 -335.613,0 0,-195.781 z" />
    </clipPath>
    <clipPath
       id="clipPath35690"
       clipPathUnits="userSpaceOnUse">
      <path
         inkscape:connector-curvature="0"
         id="path35692"
         d="m 2151.38,5715.57 c -0.2,-1.22 0.32,-2.33 1.14,-2.46 0.82,-0.13 1.64,0.75 1.86,1.99 0.17,1.22 -0.35,2.32 -1.16,2.46 -0.06,0 -0.1,0.02 -0.16,0.02 -0.77,0 -1.5,-0.86 -1.68,-2.01" />
    </clipPath>
    <clipPath
       id="clipPath35696"
       clipPathUnits="userSpaceOnUse">
      <path
         inkscape:connector-curvature="0"
         id="path35698"
         d="m 2149.6,5713.66 4.45,-1.89 2.1,5.12 -4.47,1.87 -2.08,-5.1 z" />
    </clipPath>
    <clipPath
       id="clipPath36220"
       clipPathUnits="userSpaceOnUse">
      <path
         inkscape:connector-curvature="0"
         id="path36222"
         d="m 1998.83,5624.57 335.613,0 0,195.781 -335.613,0 0,-195.781 z" />
    </clipPath>
    <clipPath
       id="clipPath36258"
       clipPathUnits="userSpaceOnUse">
      <path
         inkscape:connector-curvature="0"
         id="path36260"
         d="m 2138.13,5723.96 c -0.79,-0.42 -0.92,-1.73 -0.3,-2.92 0.62,-1.19 1.76,-1.79 2.55,-1.36 0.8,0.42 0.94,1.72 0.31,2.9 -0.49,0.95 -1.3,1.52 -2.01,1.52 -0.19,0 -0.39,-0.05 -0.55,-0.14" />
    </clipPath>
    <clipPath
       id="clipPath36264"
       clipPathUnits="userSpaceOnUse">
      <path
         inkscape:connector-curvature="0"
         id="path36266"
         d="m 2141.75,5719.28 -0.48,5.19 -4.51,-0.42 0.49,-5.19 4.5,0.42 z" />
    </clipPath>
    <clipPath
       id="clipPath36788"
       clipPathUnits="userSpaceOnUse">
      <path
         inkscape:connector-curvature="0"
         id="path36790"
         d="m 1998.83,5624.57 335.613,0 0,195.781 -335.613,0 0,-195.781 z" />
    </clipPath>
    <clipPath
       id="clipPath37590"
       clipPathUnits="userSpaceOnUse">
      <path
         inkscape:connector-curvature="0"
         id="path37592"
         d="m 2188.55,5711.96 c -0.95,-0.85 -1.41,-1.94 -1.03,-2.45 0.39,-0.52 1.52,-0.23 2.5,0.6 0.97,0.85 1.43,1.97 1.03,2.47 -0.13,0.17 -0.36,0.24 -0.62,0.24 -0.51,0 -1.23,-0.27 -1.88,-0.86" />
    </clipPath>
    <clipPath
       id="clipPath37596"
       clipPathUnits="userSpaceOnUse">
      <path
         inkscape:connector-curvature="0"
         id="path37598"
         d="m 2185.25,5711.21 3.7,-4.38 4.37,3.79 -3.69,4.38 -4.38,-3.79 z" />
    </clipPath>
    <clipPath
       id="clipPath41236"
       clipPathUnits="userSpaceOnUse">
      <path
         inkscape:connector-curvature="0"
         id="path41238"
         d="m 1998.88,6387.36 335.621,0 0,195.77 -335.621,0 0,-195.77 z" />
    </clipPath>
    <clipPath
       id="clipPath40544"
       clipPathUnits="userSpaceOnUse">
      <path
         inkscape:connector-curvature="0"
         id="path40546"
         d="m 2520.12,6387.36 335.617,0 0,195.77 -335.617,0 0,-195.77 z" />
    </clipPath>
    <clipPath
       id="clipPath38120"
       clipPathUnits="userSpaceOnUse">
      <path
         inkscape:connector-curvature="0"
         id="path38122"
         d="m 1477.62,5624.57 335.598,0 0,195.781 -335.598,0 0,-195.781 z" />
    </clipPath>
    <clipPath
       id="clipPath34990"
       clipPathUnits="userSpaceOnUse">
      <path
         inkscape:connector-curvature="0"
         id="path34992"
         d="m 2520.06,5624.57 335.621,0 0,195.781 -335.621,0 0,-195.781 z" />
    </clipPath>
    <clipPath
       id="clipPath34876"
       clipPathUnits="userSpaceOnUse">
      <path
         inkscape:connector-curvature="0"
         id="path34878"
         d="m 3041.3,5624.57 335.609,0 0,195.781 -335.609,0 0,-195.781 z" />
    </clipPath>
    <clipPath
       id="clipPath13948"
       clipPathUnits="userSpaceOnUse">
      <path
         inkscape:connector-curvature="0"
         id="path13950"
         d="m 6168.79,4480.36 335.621,0 0,195.781 -335.621,0 0,-195.781 z" />
    </clipPath>
    <clipPath
       id="clipPath38378"
       clipPathUnits="userSpaceOnUse">
      <path
         inkscape:connector-curvature="0"
         id="path38380"
         d="m 6168.69,6005.98 335.648,0 0,195.781 -335.648,0 0,-195.781 z" />
    </clipPath>
    <clipPath
       id="clipPath30660"
       clipPathUnits="userSpaceOnUse">
      <path
         inkscape:connector-curvature="0"
         id="path30662"
         d="m 5126.21,5624.57 335.629,0 0,195.781 -335.629,0 0,-195.781 z" />
    </clipPath>
    <clipPath
       id="clipPath39614"
       clipPathUnits="userSpaceOnUse">
      <path
         inkscape:connector-curvature="0"
         id="path39616"
         d="m 5647.54,6387.37 335.602,0 0,195.758 -335.602,0 0,-195.758 z" />
    </clipPath>
    <clipPath
       id="clipPath39882"
       clipPathUnits="userSpaceOnUse">
      <path
         inkscape:connector-curvature="0"
         id="path39884"
         d="m 4605.06,6387.36 335.621,0 0,195.77 -335.621,0 0,-195.77 z" />
    </clipPath>
    <clipPath
       id="clipPath40478"
       clipPathUnits="userSpaceOnUse">
      <path
         inkscape:connector-curvature="0"
         id="path40480"
         d="m 4083.81,6387.36 335.621,0 0,195.77 -335.621,0 0,-195.77 z" />
    </clipPath>
    <clipPath
       id="clipPath29482"
       clipPathUnits="userSpaceOnUse">
      <path
         inkscape:connector-curvature="0"
         id="path29484"
         d="m 7211.17,5624.57 335.629,0 0,195.781 -335.629,0 0,-195.781 z" />
    </clipPath>
    <clipPath
       id="clipPath29496"
       clipPathUnits="userSpaceOnUse">
      <path
         inkscape:connector-curvature="0"
         id="path29498"
         d="m 6689.94,5624.57 335.629,0 0,195.781 -335.629,0 0,-195.781 z" />
    </clipPath>
    <clipPath
       id="clipPath32992"
       clipPathUnits="userSpaceOnUse">
      <path
         inkscape:connector-curvature="0"
         id="path32994"
         d="m 4083.75,5624.57 335.629,0 0,195.781 -335.629,0 0,-195.781 z" />
    </clipPath>
    <clipPath
       id="clipPath29496-5"
       clipPathUnits="userSpaceOnUse">
      <path
         inkscape:connector-curvature="0"
         id="path29498-7"
         d="m 6689.94,5624.57 335.629,0 0,195.781 -335.629,0 0,-195.781 z" />
    </clipPath>
    <clipPath
       id="clipPath40526"
       clipPathUnits="userSpaceOnUse">
      <path
         inkscape:connector-curvature="0"
         id="path40528"
         d="m 3041.35,6387.36 335.617,0 0,195.77 -335.617,0 0,-195.77 z" />
    </clipPath>
    <clipPath
       id="clipPath40512"
       clipPathUnits="userSpaceOnUse">
      <path
         inkscape:connector-curvature="0"
         id="path40514"
         d="m 3562.59,6387.37 335.621,0 0,195.758 -335.621,0 0,-195.758 z" />
    </clipPath>
    <clipPath
       id="clipPath39868"
       clipPathUnits="userSpaceOnUse">
      <path
         inkscape:connector-curvature="0"
         id="path39870"
         d="m 5126.29,6387.36 335.621,0 0,195.77 -335.621,0 0,-195.77 z" />
    </clipPath>
    <clipPath
       id="clipPath38364"
       clipPathUnits="userSpaceOnUse">
      <path
         inkscape:connector-curvature="0"
         id="path38366"
         d="m 6689.94,6005.98 335.609,0 0,195.781 -335.609,0 0,-195.781 z" />
    </clipPath>
    <clipPath
       id="clipPath26446"
       clipPathUnits="userSpaceOnUse">
      <path
         inkscape:connector-curvature="0"
         id="path26448"
         d="m 1998.86,5243.19 335.629,0 0,195.758 -335.629,0 0,-195.758 z" />
    </clipPath>
    <clipPath
       id="clipPath38302"
       clipPathUnits="userSpaceOnUse">
      <path
         inkscape:connector-curvature="0"
         id="path38304"
         d="m 956.387,5624.56 335.625,0 0,195.793 -335.625,0 0,-195.793 z" />
    </clipPath>
    <clipPath
       id="clipPath26460"
       clipPathUnits="userSpaceOnUse">
      <path
         inkscape:connector-curvature="0"
         id="path26462"
         d="m 1477.62,5243.19 335.617,0 0,195.758 -335.617,0 0,-195.758 z" />
    </clipPath>
  </defs>
  <sodipodi:namedview
     id="base"
     pagecolor="#ffffff"
     bordercolor="#666666"
     borderopacity="1.0"
     inkscape:pageopacity="0.0"
     inkscape:pageshadow="2"
     inkscape:zoom="1.979899"
     inkscape:cx="276.98383"
     inkscape:cy="407.13085"
     inkscape:document-units="px"
     inkscape:current-layer="layer1"
     showgrid="false"
     units="px"
     inkscape:window-width="1920"
     inkscape:window-height="1053"
     inkscape:window-x="0"
     inkscape:window-y="0"
     inkscape:window-maximized="1"
     inkscape:snap-page="true" />
  <metadata
     id="metadata96212">
    <rdf:RDF>
      <cc:Work
         rdf:about="">
        <dc:format>image/svg+xml</dc:format>
        <dc:type
           rdf:resource="http://purl.org/dc/dcmitype/StillImage" />
        <dc:title></dc:title>
      </cc:Work>
    </rdf:RDF>
  </metadata>
  <g
     inkscape:label="Capa 1"
     inkscape:groupmode="layer"
     id="layer1"
     transform="translate(0,-440.36225)">
    <g
       id="g26456"
       transform="matrix(3.1167782,0,0,-3.1167782,-4604.4357,17393.29)">
      <g
         clip-path="url(#clipPath26460)"
         id="g26458">
        <path
           inkscape:connector-curvature="0"
           id="path26464"
           style="fill:#2b3179;fill-opacity:1;fill-rule:nonzero;stroke:none"
           d="m 1477.62,5243.19 335.617,0 0,195.758 -335.617,0 0,-195.758 z" />
        <path
           inkscape:connector-curvature="0"
           id="path26466"
           style="fill:#f1c320;fill-opacity:1;fill-rule:nonzero;stroke:none"
           d="m 1589.49,5243.19 111.883,0 0,195.758 -111.883,0 0,-195.758 z" />
        <path
           inkscape:connector-curvature="0"
           id="path26468"
           style="fill:#100f0d;fill-opacity:1;fill-rule:nonzero;stroke:none"
           d="m 1645.43,5395.27 c -3.64,-9.91 -7.34,-20.22 -15.28,-28.14 2.46,0.81 6.77,1.54 9.54,1.46 l 0,-41.69 -11.76,-1.74 c -0.44,0.04 -0.58,0.7 -0.58,1.61 -1.12,12.92 -4.2,23.82 -7.7,35.06 -0.27,1.53 -4.72,7.43 -1.27,6.39 0.41,-0.06 5.01,-1.95 4.28,-1.04 -6.25,6.48 -15.42,11.15 -24.33,12.55 -0.78,0.19 -1.22,-0.19 -0.53,-1.11 11.79,-18.16 21.67,-39.61 21.58,-65.05 4.6,0 15.72,2.71 20.31,2.71 l 0,-29.42 11.48,0 0,29.42 c 4.58,0 15.71,-2.71 20.29,-2.71 -0.07,25.44 9.81,46.89 21.61,65.05 0.69,0.92 0.21,1.3 -0.56,1.11 -8.91,-1.4 -18.05,-6.07 -24.33,-12.55 -0.72,-0.91 3.89,0.98 4.3,1.04 3.44,1.04 -1.02,-4.86 -1.26,-6.39 -3.53,-11.24 -6.58,-22.14 -7.72,-35.06 0,-0.91 -0.13,-1.57 -0.57,-1.61 l -11.76,1.74 0,41.69 c 2.77,0.08 7.08,-0.65 9.52,-1.46 -7.94,7.92 -11.63,18.23 -15.26,28.14" />
      </g>
    </g>
  </g>
</svg>
