<?xml version="1.0" encoding="UTF-8" standalone="no"?>
<!-- Created with Inkscape (http://www.inkscape.org/) -->

<svg
   xmlns:dc="http://purl.org/dc/elements/1.1/"
   xmlns:cc="http://creativecommons.org/ns#"
   xmlns:rdf="http://www.w3.org/1999/02/22-rdf-syntax-ns#"
   xmlns:svg="http://www.w3.org/2000/svg"
   xmlns="http://www.w3.org/2000/svg"
   xmlns:sodipodi="http://sodipodi.sourceforge.net/DTD/sodipodi-0.dtd"
   xmlns:inkscape="http://www.inkscape.org/namespaces/inkscape"
   width="1048"
   height="612"
   viewBox="0 0 1048 612.00003"
   id="svg96207"
   version="1.1"
   inkscape:version="0.91 r13725"
   sodipodi:docname="mexico.svg">
  <defs
     id="defs96209">
    <clipPath
       id="clipPath39396"
       clipPathUnits="userSpaceOnUse">
      <path
         inkscape:connector-curvature="0"
         id="path39398"
         d="m 435.145,6005.97 335.625,0 0,195.793 -335.625,0 0,-195.793 z" />
    </clipPath>
    <clipPath
       id="clipPath41412"
       clipPathUnits="userSpaceOnUse">
      <path
         inkscape:connector-curvature="0"
         id="path41414"
         d="m 435.145,6387.36 335.637,0 0,195.77 -335.637,0 0,-195.77 z" />
    </clipPath>
    <clipPath
       id="clipPath41400"
       clipPathUnits="userSpaceOnUse">
      <path
         inkscape:connector-curvature="0"
         id="path41402"
         d="m 956.395,6387.38 335.625,0 0,195.75 -335.625,0 0,-195.75 z" />
    </clipPath>
    <clipPath
       id="clipPath41266"
       clipPathUnits="userSpaceOnUse">
      <path
         inkscape:connector-curvature="0"
         id="path41268"
         d="m 1477.63,6387.36 335.633,0 0,195.77 -335.633,0 0,-195.77 z" />
    </clipPath>
    <clipPath
       id="clipPath35014"
       clipPathUnits="userSpaceOnUse">
      <path
         inkscape:connector-curvature="0"
         id="path35016"
         d="m 1998.83,5624.57 335.613,0 0,195.781 -335.613,0 0,-195.781 z" />
    </clipPath>
    <clipPath
       id="clipPath35690"
       clipPathUnits="userSpaceOnUse">
      <path
         inkscape:connector-curvature="0"
         id="path35692"
         d="m 2151.38,5715.57 c -0.2,-1.22 0.32,-2.33 1.14,-2.46 0.82,-0.13 1.64,0.75 1.86,1.99 0.17,1.22 -0.35,2.32 -1.16,2.46 -0.06,0 -0.1,0.02 -0.16,0.02 -0.77,0 -1.5,-0.86 -1.68,-2.01" />
    </clipPath>
    <clipPath
       id="clipPath35696"
       clipPathUnits="userSpaceOnUse">
      <path
         inkscape:connector-curvature="0"
         id="path35698"
         d="m 2149.6,5713.66 4.45,-1.89 2.1,5.12 -4.47,1.87 -2.08,-5.1 z" />
    </clipPath>
    <clipPath
       id="clipPath36220"
       clipPathUnits="userSpaceOnUse">
      <path
         inkscape:connector-curvature="0"
         id="path36222"
         d="m 1998.83,5624.57 335.613,0 0,195.781 -335.613,0 0,-195.781 z" />
    </clipPath>
    <clipPath
       id="clipPath36258"
       clipPathUnits="userSpaceOnUse">
      <path
         inkscape:connector-curvature="0"
         id="path36260"
         d="m 2138.13,5723.96 c -0.79,-0.42 -0.92,-1.73 -0.3,-2.92 0.62,-1.19 1.76,-1.79 2.55,-1.36 0.8,0.42 0.94,1.72 0.31,2.9 -0.49,0.95 -1.3,1.52 -2.01,1.52 -0.19,0 -0.39,-0.05 -0.55,-0.14" />
    </clipPath>
    <clipPath
       id="clipPath36264"
       clipPathUnits="userSpaceOnUse">
      <path
         inkscape:connector-curvature="0"
         id="path36266"
         d="m 2141.75,5719.28 -0.48,5.19 -4.51,-0.42 0.49,-5.19 4.5,0.42 z" />
    </clipPath>
    <clipPath
       id="clipPath36788"
       clipPathUnits="userSpaceOnUse">
      <path
         inkscape:connector-curvature="0"
         id="path36790"
         d="m 1998.83,5624.57 335.613,0 0,195.781 -335.613,0 0,-195.781 z" />
    </clipPath>
    <clipPath
       id="clipPath37590"
       clipPathUnits="userSpaceOnUse">
      <path
         inkscape:connector-curvature="0"
         id="path37592"
         d="m 2188.55,5711.96 c -0.95,-0.85 -1.41,-1.94 -1.03,-2.45 0.39,-0.52 1.52,-0.23 2.5,0.6 0.97,0.85 1.43,1.97 1.03,2.47 -0.13,0.17 -0.36,0.24 -0.62,0.24 -0.51,0 -1.23,-0.27 -1.88,-0.86" />
    </clipPath>
    <clipPath
       id="clipPath37596"
       clipPathUnits="userSpaceOnUse">
      <path
         inkscape:connector-curvature="0"
         id="path37598"
         d="m 2185.25,5711.21 3.7,-4.38 4.37,3.79 -3.69,4.38 -4.38,-3.79 z" />
    </clipPath>
    <clipPath
       id="clipPath41236"
       clipPathUnits="userSpaceOnUse">
      <path
         inkscape:connector-curvature="0"
         id="path41238"
         d="m 1998.88,6387.36 335.621,0 0,195.77 -335.621,0 0,-195.77 z" />
    </clipPath>
    <clipPath
       id="clipPath40544"
       clipPathUnits="userSpaceOnUse">
      <path
         inkscape:connector-curvature="0"
         id="path40546"
         d="m 2520.12,6387.36 335.617,0 0,195.77 -335.617,0 0,-195.77 z" />
    </clipPath>
    <clipPath
       id="clipPath38120"
       clipPathUnits="userSpaceOnUse">
      <path
         inkscape:connector-curvature="0"
         id="path38122"
         d="m 1477.62,5624.57 335.598,0 0,195.781 -335.598,0 0,-195.781 z" />
    </clipPath>
    <clipPath
       id="clipPath34990"
       clipPathUnits="userSpaceOnUse">
      <path
         inkscape:connector-curvature="0"
         id="path34992"
         d="m 2520.06,5624.57 335.621,0 0,195.781 -335.621,0 0,-195.781 z" />
    </clipPath>
    <clipPath
       id="clipPath34876"
       clipPathUnits="userSpaceOnUse">
      <path
         inkscape:connector-curvature="0"
         id="path34878"
         d="m 3041.3,5624.57 335.609,0 0,195.781 -335.609,0 0,-195.781 z" />
    </clipPath>
  </defs>
  <sodipodi:namedview
     id="base"
     pagecolor="#ffffff"
     bordercolor="#666666"
     borderopacity="1.0"
     inkscape:pageopacity="0.0"
     inkscape:pageshadow="2"
     inkscape:zoom="1.979899"
     inkscape:cx="325.81948"
     inkscape:cy="438.73274"
     inkscape:document-units="px"
     inkscape:current-layer="layer1"
     showgrid="false"
     units="px"
     inkscape:window-width="1920"
     inkscape:window-height="1053"
     inkscape:window-x="0"
     inkscape:window-y="0"
     inkscape:window-maximized="1"
     inkscape:snap-page="true" />
  <metadata
     id="metadata96212">
    <rdf:RDF>
      <cc:Work
         rdf:about="">
        <dc:format>image/svg+xml</dc:format>
        <dc:type
           rdf:resource="http://purl.org/dc/dcmitype/StillImage" />
        <dc:title></dc:title>
      </cc:Work>
    </rdf:RDF>
  </metadata>
  <g
     inkscape:label="Capa 1"
     inkscape:groupmode="layer"
     id="layer1"
     transform="translate(0,-440.36225)">
    <g
       id="g34872"
       transform="matrix(3.1188182,0,0,-3.1188182,-9484.6133,18593.675)">
      <g
         clip-path="url(#clipPath34876)"
         id="g34874">
        <path
           inkscape:connector-curvature="0"
           id="path34880"
           style="fill:#ffffff;fill-opacity:1;fill-rule:nonzero;stroke:none"
           d="m 3041.3,5624.57 335.609,0 0,195.781 -335.609,0 0,-195.781 z" />
        <path
           inkscape:connector-curvature="0"
           id="path34882"
           style="fill:#3a46a3;fill-opacity:1;fill-rule:nonzero;stroke:none"
           d="m 3209.11,5733.34 -3.37,-10.35 5.17,-1.69 -1.8,12.04" />
        <path
           inkscape:connector-curvature="0"
           id="path34884"
           style="fill:#3a46a3;fill-opacity:1;fill-rule:nonzero;stroke:none"
           d="m 3209.11,5733.34 3.35,-10.35 -5.16,-1.69 1.81,12.04" />
        <path
           inkscape:connector-curvature="0"
           id="path34886"
           style="fill:#3a46a3;fill-opacity:1;fill-rule:nonzero;stroke:none"
           d="m 3219.45,5725.81 -10.88,0 0,-5.44 10.88,5.44" />
        <path
           inkscape:connector-curvature="0"
           id="path34888"
           style="fill:#3a46a3;fill-opacity:1;fill-rule:nonzero;stroke:none"
           d="m 3219.45,5725.81 -8.8,-6.38 -3.2,4.39 12,1.99" />
        <path
           inkscape:connector-curvature="0"
           id="path34890"
           style="fill:#3a46a3;fill-opacity:1;fill-rule:nonzero;stroke:none"
           d="m 3198.75,5725.81 8.81,-6.38 3.19,4.39 -12,1.99" />
        <path
           inkscape:connector-curvature="0"
           id="path34892"
           style="fill:#3a46a3;fill-opacity:1;fill-rule:nonzero;stroke:none"
           d="m 3198.75,5725.81 10.9,0 0,-5.44 -10.9,5.44" />
        <path
           inkscape:connector-curvature="0"
           id="path34894"
           style="fill:#3a46a3;fill-opacity:1;fill-rule:nonzero;stroke:none"
           d="m 3215.49,5713.66 -3.35,10.34 -5.17,-1.69 8.52,-8.65" />
        <path
           inkscape:connector-curvature="0"
           id="path34896"
           style="fill:#3a46a3;fill-opacity:1;fill-rule:nonzero;stroke:none"
           d="m 3215.49,5713.66 -8.79,6.39 3.18,4.4 5.61,-10.79" />
        <path
           inkscape:connector-curvature="0"
           id="path34898"
           style="fill:#3a46a3;fill-opacity:1;fill-rule:nonzero;stroke:none"
           d="m 3202.71,5713.66 8.81,6.39 -3.22,4.4 -5.59,-10.79" />
        <path
           inkscape:connector-curvature="0"
           id="path34900"
           style="fill:#3a46a3;fill-opacity:1;fill-rule:nonzero;stroke:none"
           d="m 3202.71,5713.66 3.37,10.34 5.17,-1.69 -8.54,-8.65" />
        <path
           inkscape:connector-curvature="0"
           id="path34902"
           style="fill:#3a46a3;fill-opacity:1;fill-rule:nonzero;stroke:none"
           d="m 3263.5,5717.03 -3.37,-10.37 5.16,-1.66 -1.79,12.03" />
        <path
           inkscape:connector-curvature="0"
           id="path34904"
           style="fill:#3a46a3;fill-opacity:1;fill-rule:nonzero;stroke:none"
           d="m 3263.5,5717.03 3.34,-10.37 -5.16,-1.66 1.82,12.03" />
        <path
           inkscape:connector-curvature="0"
           id="path34906"
           style="fill:#3a46a3;fill-opacity:1;fill-rule:nonzero;stroke:none"
           d="m 3273.81,5709.51 -10.85,0 0,-5.45 10.85,5.45" />
        <path
           inkscape:connector-curvature="0"
           id="path34908"
           style="fill:#3a46a3;fill-opacity:1;fill-rule:nonzero;stroke:none"
           d="m 3273.81,5709.51 -8.76,-6.4 -3.21,4.42 11.97,1.98" />
        <path
           inkscape:connector-curvature="0"
           id="path34910"
           style="fill:#3a46a3;fill-opacity:1;fill-rule:nonzero;stroke:none"
           d="m 3253.15,5709.51 8.79,-6.4 3.2,4.42 -11.99,1.98" />
        <path
           inkscape:connector-curvature="0"
           id="path34912"
           style="fill:#3a46a3;fill-opacity:1;fill-rule:nonzero;stroke:none"
           d="m 3253.15,5709.51 10.86,0 0,-5.45 -10.86,5.45" />
        <path
           inkscape:connector-curvature="0"
           id="path34914"
           style="fill:#3a46a3;fill-opacity:1;fill-rule:nonzero;stroke:none"
           d="m 3269.87,5697.34 -3.37,10.35 -5.14,-1.68 8.51,-8.67" />
        <path
           inkscape:connector-curvature="0"
           id="path34916"
           style="fill:#3a46a3;fill-opacity:1;fill-rule:nonzero;stroke:none"
           d="m 3269.87,5697.34 -8.79,6.4 3.2,4.39 5.59,-10.79" />
        <path
           inkscape:connector-curvature="0"
           id="path34918"
           style="fill:#3a46a3;fill-opacity:1;fill-rule:nonzero;stroke:none"
           d="m 3257.09,5697.34 8.79,6.4 -3.19,4.39 -5.6,-10.79" />
        <path
           inkscape:connector-curvature="0"
           id="path34920"
           style="fill:#3a46a3;fill-opacity:1;fill-rule:nonzero;stroke:none"
           d="m 3257.09,5697.34 3.37,10.35 5.17,-1.68 -8.54,-8.67" />
        <path
           inkscape:connector-curvature="0"
           id="path34922"
           style="fill:#3a46a3;fill-opacity:1;fill-rule:nonzero;stroke:none"
           d="m 3263.5,5749.65 -3.37,-10.34 5.16,-1.69 -1.79,12.03" />
        <path
           inkscape:connector-curvature="0"
           id="path34924"
           style="fill:#3a46a3;fill-opacity:1;fill-rule:nonzero;stroke:none"
           d="m 3263.5,5749.65 3.34,-10.34 -5.16,-1.69 1.82,12.03" />
        <path
           inkscape:connector-curvature="0"
           id="path34926"
           style="fill:#3a46a3;fill-opacity:1;fill-rule:nonzero;stroke:none"
           d="m 3273.81,5742.14 -10.85,0 0,-5.44 10.85,5.44" />
        <path
           inkscape:connector-curvature="0"
           id="path34928"
           style="fill:#3a46a3;fill-opacity:1;fill-rule:nonzero;stroke:none"
           d="m 3273.81,5742.14 -8.76,-6.41 -3.21,4.42 11.97,1.99" />
        <path
           inkscape:connector-curvature="0"
           id="path34930"
           style="fill:#3a46a3;fill-opacity:1;fill-rule:nonzero;stroke:none"
           d="m 3253.15,5742.14 8.79,-6.41 3.2,4.42 -11.99,1.99" />
        <path
           inkscape:connector-curvature="0"
           id="path34932"
           style="fill:#3a46a3;fill-opacity:1;fill-rule:nonzero;stroke:none"
           d="m 3253.15,5742.14 10.86,0 0,-5.44 -10.86,5.44" />
        <path
           inkscape:connector-curvature="0"
           id="path34934"
           style="fill:#3a46a3;fill-opacity:1;fill-rule:nonzero;stroke:none"
           d="m 3269.87,5729.97 -3.37,10.33 -5.14,-1.66 8.51,-8.67" />
        <path
           inkscape:connector-curvature="0"
           id="path34936"
           style="fill:#3a46a3;fill-opacity:1;fill-rule:nonzero;stroke:none"
           d="m 3269.87,5729.97 -8.79,6.41 3.2,4.38 5.59,-10.79" />
        <path
           inkscape:connector-curvature="0"
           id="path34938"
           style="fill:#3a46a3;fill-opacity:1;fill-rule:nonzero;stroke:none"
           d="m 3257.09,5729.97 8.79,6.41 -3.19,4.38 -5.6,-10.79" />
        <path
           inkscape:connector-curvature="0"
           id="path34940"
           style="fill:#3a46a3;fill-opacity:1;fill-rule:nonzero;stroke:none"
           d="m 3257.09,5729.97 3.37,10.33 5.17,-1.66 -8.54,-8.67" />
        <path
           inkscape:connector-curvature="0"
           id="path34942"
           style="fill:#3a46a3;fill-opacity:1;fill-rule:nonzero;stroke:none"
           d="m 3154.72,5717.03 -3.35,-10.37 5.15,-1.66 -1.8,12.03" />
        <path
           inkscape:connector-curvature="0"
           id="path34944"
           style="fill:#3a46a3;fill-opacity:1;fill-rule:nonzero;stroke:none"
           d="m 3154.72,5717.03 3.36,-10.37 -5.16,-1.66 1.8,12.03" />
        <path
           inkscape:connector-curvature="0"
           id="path34946"
           style="fill:#3a46a3;fill-opacity:1;fill-rule:nonzero;stroke:none"
           d="m 3165.06,5709.51 -10.87,0 0,-5.45 10.87,5.45" />
        <path
           inkscape:connector-curvature="0"
           id="path34948"
           style="fill:#3a46a3;fill-opacity:1;fill-rule:nonzero;stroke:none"
           d="m 3165.06,5709.51 -8.79,-6.4 -3.2,4.42 11.99,1.98" />
        <path
           inkscape:connector-curvature="0"
           id="path34950"
           style="fill:#3a46a3;fill-opacity:1;fill-rule:nonzero;stroke:none"
           d="m 3144.38,5709.51 8.79,-6.4 3.21,4.42 -12,1.98" />
        <path
           inkscape:connector-curvature="0"
           id="path34952"
           style="fill:#3a46a3;fill-opacity:1;fill-rule:nonzero;stroke:none"
           d="m 3144.38,5709.51 10.87,0 0,-5.45 -10.87,5.45" />
        <path
           inkscape:connector-curvature="0"
           id="path34954"
           style="fill:#3a46a3;fill-opacity:1;fill-rule:nonzero;stroke:none"
           d="m 3161.11,5697.34 -3.36,10.35 -5.17,-1.68 8.53,-8.67" />
        <path
           inkscape:connector-curvature="0"
           id="path34956"
           style="fill:#3a46a3;fill-opacity:1;fill-rule:nonzero;stroke:none"
           d="m 3161.11,5697.34 -8.79,6.4 3.19,4.39 5.6,-10.79" />
        <path
           inkscape:connector-curvature="0"
           id="path34958"
           style="fill:#3a46a3;fill-opacity:1;fill-rule:nonzero;stroke:none"
           d="m 3148.32,5697.34 8.81,6.4 -3.2,4.39 -5.61,-10.79" />
        <path
           inkscape:connector-curvature="0"
           id="path34960"
           style="fill:#3a46a3;fill-opacity:1;fill-rule:nonzero;stroke:none"
           d="m 3148.32,5697.34 3.37,10.35 5.17,-1.68 -8.54,-8.67" />
        <path
           inkscape:connector-curvature="0"
           id="path34962"
           style="fill:#3a46a3;fill-opacity:1;fill-rule:nonzero;stroke:none"
           d="m 3154.72,5749.65 -3.35,-10.34 5.15,-1.69 -1.8,12.03" />
        <path
           inkscape:connector-curvature="0"
           id="path34964"
           style="fill:#3a46a3;fill-opacity:1;fill-rule:nonzero;stroke:none"
           d="m 3154.72,5749.65 3.36,-10.34 -5.16,-1.69 1.8,12.03" />
        <path
           inkscape:connector-curvature="0"
           id="path34966"
           style="fill:#3a46a3;fill-opacity:1;fill-rule:nonzero;stroke:none"
           d="m 3165.06,5742.14 -10.87,0 0,-5.44 10.87,5.44" />
        <path
           inkscape:connector-curvature="0"
           id="path34968"
           style="fill:#3a46a3;fill-opacity:1;fill-rule:nonzero;stroke:none"
           d="m 3165.06,5742.14 -8.79,-6.41 -3.2,4.42 11.99,1.99" />
        <path
           inkscape:connector-curvature="0"
           id="path34970"
           style="fill:#3a46a3;fill-opacity:1;fill-rule:nonzero;stroke:none"
           d="m 3144.38,5742.14 8.79,-6.41 3.21,4.42 -12,1.99" />
        <path
           inkscape:connector-curvature="0"
           id="path34972"
           style="fill:#3a46a3;fill-opacity:1;fill-rule:nonzero;stroke:none"
           d="m 3144.38,5742.14 10.87,0 0,-5.44 -10.87,5.44" />
        <path
           inkscape:connector-curvature="0"
           id="path34974"
           style="fill:#3a46a3;fill-opacity:1;fill-rule:nonzero;stroke:none"
           d="m 3161.11,5729.97 -3.36,10.33 -5.17,-1.66 8.53,-8.67" />
        <path
           inkscape:connector-curvature="0"
           id="path34976"
           style="fill:#3a46a3;fill-opacity:1;fill-rule:nonzero;stroke:none"
           d="m 3161.11,5729.97 -8.79,6.41 3.19,4.38 5.6,-10.79" />
        <path
           inkscape:connector-curvature="0"
           id="path34978"
           style="fill:#3a46a3;fill-opacity:1;fill-rule:nonzero;stroke:none"
           d="m 3148.32,5729.97 8.81,6.41 -3.2,4.38 -5.61,-10.79" />
        <path
           inkscape:connector-curvature="0"
           id="path34980"
           style="fill:#3a46a3;fill-opacity:1;fill-rule:nonzero;stroke:none"
           d="m 3148.32,5729.97 3.37,10.33 5.17,-1.66 -8.54,-8.67" />
        <path
           inkscape:connector-curvature="0"
           id="path34982"
           style="fill:#3a46a3;fill-opacity:1;fill-rule:nonzero;stroke:none"
           d="m 3041.3,5755.09 335.609,0 0,65.2617 -335.609,0 0,-65.2617 z" />
        <path
           inkscape:connector-curvature="0"
           id="path34984"
           style="fill:#3a46a3;fill-opacity:1;fill-rule:nonzero;stroke:none"
           d="m 3041.3,5624.57 335.609,0 0,65.25 -335.609,0 0,-65.25 z" />
      </g>
    </g>
  </g>
</svg>
