<?xml version="1.0" encoding="UTF-8" standalone="no"?>
<!-- Created with Inkscape (http://www.inkscape.org/) -->

<svg
   xmlns:dc="http://purl.org/dc/elements/1.1/"
   xmlns:cc="http://creativecommons.org/ns#"
   xmlns:rdf="http://www.w3.org/1999/02/22-rdf-syntax-ns#"
   xmlns:svg="http://www.w3.org/2000/svg"
   xmlns="http://www.w3.org/2000/svg"
   xmlns:sodipodi="http://sodipodi.sourceforge.net/DTD/sodipodi-0.dtd"
   xmlns:inkscape="http://www.inkscape.org/namespaces/inkscape"
   width="1048"
   height="612"
   viewBox="0 0 1048 612.00003"
   id="svg96207"
   version="1.1"
   inkscape:version="0.91 r13725"
   sodipodi:docname="bandera-4.svg">
  <defs
     id="defs96209">
    <clipPath
       id="clipPath39396"
       clipPathUnits="userSpaceOnUse">
      <path
         inkscape:connector-curvature="0"
         id="path39398"
         d="m 435.145,6005.97 335.625,0 0,195.793 -335.625,0 0,-195.793 z" />
    </clipPath>
    <clipPath
       id="clipPath41412"
       clipPathUnits="userSpaceOnUse">
      <path
         inkscape:connector-curvature="0"
         id="path41414"
         d="m 435.145,6387.36 335.637,0 0,195.77 -335.637,0 0,-195.77 z" />
    </clipPath>
    <clipPath
       id="clipPath41400"
       clipPathUnits="userSpaceOnUse">
      <path
         inkscape:connector-curvature="0"
         id="path41402"
         d="m 956.395,6387.38 335.625,0 0,195.75 -335.625,0 0,-195.75 z" />
    </clipPath>
    <clipPath
       id="clipPath41266"
       clipPathUnits="userSpaceOnUse">
      <path
         inkscape:connector-curvature="0"
         id="path41268"
         d="m 1477.63,6387.36 335.633,0 0,195.77 -335.633,0 0,-195.77 z" />
    </clipPath>
    <clipPath
       id="clipPath29466"
       clipPathUnits="userSpaceOnUse">
      <path
         inkscape:connector-curvature="0"
         id="path29468"
         d="m 435.145,5243.16 335.625,0 0,195.789 -335.625,0 0,-195.789 z" />
    </clipPath>
    <clipPath
       id="clipPath38328"
       clipPathUnits="userSpaceOnUse">
      <path
         inkscape:connector-curvature="0"
         id="path38330"
         d="m 435.145,5624.56 335.625,0 0,195.793 -335.625,0 0,-195.793 z" />
    </clipPath>
  </defs>
  <sodipodi:namedview
     id="base"
     pagecolor="#ffffff"
     bordercolor="#666666"
     borderopacity="1.0"
     inkscape:pageopacity="0.0"
     inkscape:pageshadow="2"
     inkscape:zoom="0.98994949"
     inkscape:cx="111.9543"
     inkscape:cy="120.84106"
     inkscape:document-units="px"
     inkscape:current-layer="layer1"
     showgrid="false"
     units="px"
     inkscape:window-width="1920"
     inkscape:window-height="1053"
     inkscape:window-x="0"
     inkscape:window-y="0"
     inkscape:window-maximized="1"
     inkscape:snap-page="true" />
  <metadata
     id="metadata96212">
    <rdf:RDF>
      <cc:Work
         rdf:about="">
        <dc:format>image/svg+xml</dc:format>
        <dc:type
           rdf:resource="http://purl.org/dc/dcmitype/StillImage" />
        <dc:title></dc:title>
      </cc:Work>
    </rdf:RDF>
  </metadata>
  <g
     inkscape:label="Capa 1"
     inkscape:groupmode="layer"
     id="layer1"
     transform="translate(0,-440.36225)">
    <g
       id="g38324"
       transform="matrix(3.1167069,0,0,-3.1167069,-1355.2418,18581.582)">
      <g
         clip-path="url(#clipPath38328)"
         id="g38326">
        <path
           inkscape:connector-curvature="0"
           id="path38332"
           style="fill:#90d0f2;fill-opacity:1;fill-rule:nonzero;stroke:none"
           d="m 435.145,5624.56 335.625,0 0,195.793 -335.625,0 0,-195.793 z" />
        <path
           inkscape:connector-curvature="0"
           id="path38334"
           style="fill:#ffffff;fill-opacity:1;fill-rule:nonzero;stroke:none"
           d="m 537.695,5641.83 130.52,0 -65.277,161.29 -65.243,-161.29" />
        <path
           inkscape:connector-curvature="0"
           id="path38336"
           style="fill:#100f0d;fill-opacity:1;fill-rule:nonzero;stroke:none"
           d="m 546.484,5641.83 112.911,0 -56.457,139.54 -56.454,-139.54" />
        <path
           inkscape:connector-curvature="0"
           id="path38338"
           style="fill:#efd01c;fill-opacity:1;fill-rule:nonzero;stroke:none"
           d="m 537.695,5641.5 130.52,0 -65.277,80.64 -65.243,-80.64" />
      </g>
    </g>
  </g>
</svg>
